Aditya Mangal's Blog – The Winter Olympics: MakeOverMonday 2018 Week7
…
## The following object is masked from 'package:graphics':
## 
##     layout

Obtaining Data

Reading and viewing the dataset

olympics = read_excel("/tmp/Winer Olympic Medals.xlsx")

olympics

## # A tibble: 2,865 x 9
##     Year Sport  Event  Country Gender `Medal Rank` Medal `Name of Athlete~
##    <dbl> <chr>  <chr>  <chr>   <chr>         <dbl> <chr> <chr>            
##  1  1924 Bobsl~ Men's~ Switze~ Men            1.00 gold  Switzerland-1    
##  2  1924 Bobsl~ Men's~ Britain Men            2.00 silv~ Britain-1        
##  3  1924 Bobsl~ Men's~ Belgium Men            3.00 bron~ Belgium-1        
##  4  1924 Cross~ Men's~ Norway  Men            1.00 gold  Thorleif Haug    
##  5  1924 Cross~ Men's~ Norway  Men            2.00 silv~ "Johan Gr\u00c3\~
##  6  1924 Cross~ Men's~ Finland Men            3.00 bron~ Tapani Niku      
##  7  1924 Cross~ Men's~ Norway  Men            1.00 gold  Thorleif Haug    
##  8  1924 Cross~ Men's~ Norway  Men            2.00 silv~ "Thoralf Str\u00~
##  9  1924 Cross~ Men's~ Norway  Men            3.00 bron~ "Johan Gr\u00c3\~
## 10  1924 Curli~ Men's~ Britain Men            1.00 gold  Britain          
## # ... with 2,855 more rows, and 1 more variable: `Age of Athlete` <dbl>
…
countryCodes

## # A tibble: 249 x 9
##    name            `alpha-2` `alpha-3` `country-code` `iso_3166-2` region 
##    <chr>           <chr>     <chr>     <chr>          <chr>        <chr>  
##  1 Afghanistan     AF        AFG       004            ISO 3166-2:~ Asia   
##  2 "\u00c5land Is~ AX        ALA       248            ISO 3166-2:~ Europe 
##  3 Albania         AL        ALB       008            ISO 3166-2:~ Europe 
##  4 Algeria         DZ        DZA       012            ISO 3166-2:~ Africa 
##  5 American Samoa  AS        ASM       016            ISO 3166-2:~ Oceania
##  6 Andorra         AD        AND       020            ISO 3166-2:~ Europe 
##  7 Angola          AO        AGO       024            ISO 3166-2:~ Africa 
##  8 Anguilla        AI        AIA       660            ISO 3166-2:~ Americ~
##  9 Antarctica      AQ        ATA       010            ISO 3166-2:~ <NA>   
## 10 Antigua and Ba~ AG        ATG       028            ISO 3166-2:~ Americ~
## # ... with 239 more rows, and 3 more variables: `sub-region` <chr>,
## #   `region-code` <chr>, `sub-region-code` <chr>
…
Joining and viewing the 2 datasets

olympics = olympics %>% 
  left_join(countryCodes, by=c("Country" = "name"))
olympics

## # A tibble: 2,865 x 17
##     Year Sport  Event  Country  Gender `Medal Rank` Medal `Name of Athlet~
##    <dbl> <chr>  <chr>  <chr>    <chr>         <dbl> <chr> <chr>           
##  1  1924 Bobsl~ Men's~ Switzer~ Men            1.00 gold  Switzerland-1   
##  2  1924 Bobsl~ Men's~ United ~ Men            2.00 silv~ Britain-1       
##  3  1924 Bobsl~ Men's~ Belgium  Men            3.00 bron~ Belgium-1       
##  4  1924 Cross~ Men's~ Norway   Men            1.00 gold  Thorleif Haug   
##  5  1924 Cross~ Men's~ Norway   Men            2.00 silv~ "Johan Gr\u00c3~
##  6  1924 Cross~ Men's~ Finland  Men            3.00 bron~ Tapani Niku     
##  7  1924 Cross~ Men's~ Norway   Men            1.00 gold  Thorleif Haug   
##  8  1924 Cross~ Men's~ Norway   Men            2.00 silv~ "Thoralf Str\u0~
##  9  1924 Cross~ Men's~ Norway   Men            3.00 bron~ "Johan Gr\u00c3~
## 10  1924 Curli~ Men's~ United ~ Men            1.00 gold  Britain         
## # ... with 2,855 more rows, and 9 more variables: `Age of Athlete` <dbl>,
## #   `alpha-2` <chr>, `alpha-3` <chr>, `country-code` <chr>,
## #   `iso_3166-2` <chr>, region <chr>, `sub-region` <chr>,
## #   `region-code` <chr>, `sub-region-code` <chr>

Aggregating per country to find the total number of medals for each country and its corresponding alpha-3 code.

TotalMedalsPerCountry = olympics %>% 
  group_by(Country, `alpha-3`) %>% 
  summarise(TotalMedals = n()) %>% 
  rename(Code = `alpha-3`)
TotalMedalsPerCountry

## # A tibble: 39 x 3
## # Groups:   Country [39]
##    Country        Code  TotalMedals
##    <chr>          <chr>       <int>
##  1 Australia      AUS            12
##  2 Austria        AUT           218
##  3 Belarus        BLR            15
##  4 Belgium        BEL             5
##  5 Bulgaria       BGR             6
##  6 Canada         CAN           170
##  7 China          CHN            53
##  8 Croatia        HRV            11
##  9 Czech Republic CZE            49
## 10 Denmark        DNK             1
## # ... with 29 more rows

Lets see the top countries based on total number of medals

TotalMedalsPerCountry %>% 
  arrange(desc(TotalMedals))

## # A tibble: 39 x 3
## # Groups:   Country [39]
##    Country                  Code  TotalMedals
##    <chr>                    <chr>       <int>
##  1 Germany                  DEU           377
##  2 Russian Federation       RUS           341
##  3 Norway                   NOR           329
##  4 United States of America USA           282
##  5 Austria                  AUT           218
##  6 Canada                   CAN           170
##  7 Finland                  FIN           161
##  8 Sweden                   SWE           144
##  9 Switzerland              CHE           138
## 10 Italy                    ITA           114
## # ... with 29 more rows
…
