…
``` r
summary(train$trip_duration)
```

    ##    Min. 1st Qu.  Median    Mean 3rd Qu.    Max. 
    ##       1     397     662     959    1075 3526282

``` r
train %>% filter(passenger_count>1)
```

    ## # A tibble: 425,044 x 11
    ##           id vendor_id     pickup_datetime    dropoff_datetime
    ##        <chr>     <int>              <dttm>              <dttm>
    ##  1 id0801584         2 2016-01-30 22:01:40 2016-01-30 22:09:03
    ##  2 id1813257         1 2016-06-17 22:34:59 2016-06-17 22:40:40
    ##  3 id1299289         2 2016-05-15 11:16:11 2016-05-15 11:34:59
    ##  4 id1187965         2 2016-02-19 09:52:46 2016-02-19 10:11:20
    ##  5 id3075902         2 2016-05-10 19:27:38 2016-05-10 19:44:40
    ##  6 id1870624         1 2016-01-05 15:29:54 2016-01-05 15:39:07
    ##  7 id3323083         1 2016-05-27 14:26:12 2016-05-27 14:46:01
    ##  8 id0578558         1 2016-04-21 21:28:27 2016-04-21 21:52:37
    ##  9 id2573056         2 2016-04-14 13:27:52 2016-04-14 13:46:14
    ## 10 id2391523         1 2016-05-18 21:50:24 2016-05-18 22:10:41
    ## # ... with 425,034 more rows, and 7 more variables: passenger_count <int>,
    ## #   pickup_longitude <dbl>, pickup_latitude <dbl>,
    ## #   dropoff_longitude <dbl>, dropoff_latitude <dbl>,
    ## #   store_and_fwd_flag <chr>, trip_duration <int>
…
